AMT_Quartus_FINAL/simulation/qsim/AMT.msim.vcd
$comment
	File created using the following command:
		vcd file AMT.msim.vcd -direction
$end
$date
	Thu Sep 21 13:04:14 2017
$end
$version
	ModelSim Version 10.5b
$end
$timescale
	1ps
$end

$scope module timer_vhd_vec_tst $end
$var wire 1 ! clock_in $end
$var wire 1 " delayOut $end
$var wire 1 # delayStart $end

$scope module i1 $end
$var wire 1 $ gnd $end
$var wire 1 % vcc $end
$var wire 1 & unknown $end
$var wire 1 ' devoe $end
$var wire 1 ( devclrn $end
$var wire 1 ) devpor $end
$var wire 1 * ww_devoe $end
$var wire 1 + ww_devclrn $end
$var wire 1 , ww_devpor $end
$var wire 1 - ww_clock_in $end
$var wire 1 . ww_delayStart $end
$var wire 1 / ww_delayOut $end
$var wire 1 0 \clock_in~inputclkctrl_INCLK_bus\ [3] $end
$var wire 1 1 \clock_in~inputclkctrl_INCLK_bus\ [2] $end
$var wire 1 2 \clock_in~inputclkctrl_INCLK_bus\ [1] $end
$var wire 1 3 \clock_in~inputclkctrl_INCLK_bus\ [0] $end
$var wire 1 4 \delayStart~input_o\ $end
$var wire 1 5 \delayOut~output_o\ $end
$var wire 1 6 \clock_in~input_o\ $end
$var wire 1 7 \clock_in~inputclkctrl_outclk\ $end
$var wire 1 8 \count~0_combout\ $end
$var wire 1 9 \count~3_combout\ $end
$var wire 1 : \count~2_combout\ $end
$var wire 1 ; \count~1_combout\ $end
$var wire 1 < \Equal0~0_combout\ $end
$var wire 1 = \clock_tmp~q\ $end
$var wire 1 > count [3] $end
$var wire 1 ? count [2] $end
$var wire 1 @ count [1] $end
$var wire 1 A count [0] $end
$upscope $end
$upscope $end
$enddefinitions $end
#0
$dumpvars
0!
0"
0#
0$
1%
x&
1'
1(
1)
1*
1+
1,
0-
0.
0/
04
05
06
07
08
09
1:
0;
0<
0=
0>
0?
0@
0A
10
11
12
03
$end
#10000
1!
1-
16
13
17
1A
18
0:
#20000
0!
0-
06
03
07
#30000
1!
1#
1-
1.
14
16
13
17
1@
0A
1:
#40000
0!
0-
06
03
07
#50000
1!
1-
16
13
17
1A
08
19
0:
#60000
0!
0-
06
03
07
#70000
1!
0#
1-
0.
04
16
13
17
0@
1?
0A
1:
#80000
0!
0-
06
03
07
#90000
1!
1-
16
13
17
1A
18
0:
#100000
0!
0-
06
03
07
#110000
1!
1-
16
13
17
1@
0A
1:
#120000
0!
0-
06
03
07
#130000
1!
1-
16
13
17
1A
08
09
0:
1;
#140000
0!
0-
06
03
07
#150000
1!
1-
16
13
17
0@
0?
0A
1>
1:
#160000
0!
0-
06
03
07
#170000
1!
1-
16
13
17
1A
18
0:
#180000
0!
0-
06
03
07
#190000
1!
1-
16
13
17
1@
0A
08
0;
1<
#200000
0!
0-
06
03
07
#210000
1!
1-
16
13
17
0@
0>
1=
1:
0<
15
1/
1"
#220000
0!
0-
06
03
07
#230000
1!
1-
16
13
17
1A
0=
18
0:
05
0/
0"
#240000
0!
0-
06
03
07
#250000
1!
1-
16
13
17
1@
0A
1:
#260000
0!
0-
06
03
07
#270000
1!
1-
16
13
17
1A
08
19
0:
#280000
0!
0-
06
03
07
#290000
1!
1-
16
13
17
0@
1?
0A
1:
#300000
0!
0-
06
03
07
#310000
1!
1-
16
13
17
1A
18
0:
#320000
0!
0-
06
03
07
#330000
1!
1-
16
13
17
1@
0A
1:
#340000
0!
0-
06
03
07
#350000
1!
1-
16
13
17
1A
08
09
0:
1;
#360000
0!
0-
06
03
07
#370000
1!
1-
16
13
17
0@
0?
0A
1>
1:
#380000
0!
0-
06
03
07
#390000
1!
1-
16
13
17
1A
18
0:
#400000
0!
0-
06
03
07
#410000
1!
1-
16
13
17
1@
0A
08
0;
1<
#420000
0!
0-
06
03
07
#430000
1!
1-
16
13
17
0@
0>
1=
1:
0<
15
1/
1"
#440000
0!
0-
06
03
07
#450000
1!
1-
16
13
17
1A
0=
18
0:
05
0/
0"
#460000
0!
0-
06
03
07
#470000
1!
1-
16
13
17
1@
0A
1:
#480000
0!
0-
06
03
07
#490000
1!
1-
16
13
17
1A
08
19
0:
#500000
0!
0-
06
03
07
#510000
1!
1-
16
13
17
0@
1?
0A
1:
#520000
0!
0-
06
03
07
#530000
1!
1-
16
13
17
1A
18
0:
#540000
0!
0-
06
03
07
#550000
1!
1-
16
13
17
1@
0A
1:
#560000
0!
0-
06
03
07
#570000
1!
1-
16
13
17
1A
08
09
0:
1;
#580000
0!
0-
06
03
07
#590000
1!
1-
16
13
17
0@
0?
0A
1>
1:
#600000
0!
0-
06
03
07
#610000
1!
1-
16
13
17
1A
18
0:
#620000
0!
0-
06
03
07
#630000
1!
1-
16
13
17
1@
0A
08
0;
1<
#640000
0!
0-
06
03
07
#650000
1!
1-
16
13
17
0@
0>
1=
1:
0<
15
1/
1"
#660000
0!
0-
06
03
07
#670000
1!
1-
16
13
17
1A
0=
18
0:
05
0/
0"
#680000
0!
0-
06
03
07
#690000
1!
1-
16
13
17
1@
0A
1:
#700000
0!
0-
06
03
07
#710000
1!
1-
16
13
17
1A
08
19
0:
#720000
0!
0-
06
03
07
#730000
1!
1-
16
13
17
0@
1?
0A
1:
#740000
0!
0-
06
03
07
#750000
1!
1-
16
13
17
1A
18
0:
#760000
0!
0-
06
03
07
#770000
1!
1-
16
13
17
1@
0A
1:
#780000
0!
0-
06
03
07
#790000
1!
1-
16
13
17
1A
08
09
0:
1;
#800000
0!
0-
06
03
07
#810000
1!
1-
16
13
17
0@
0?
0A
1>
1:
#820000
0!
0-
06
03
07
#830000
1!
1-
16
13
17
1A
18
0:
#840000
0!
0-
06
03
07
#850000
1!
1-
16
13
17
1@
0A
08
0;
1<
#860000
0!
0-
06
03
07
#870000
1!
1-
16
13
17
0@
0>
1=
1:
0<
15
1/
1"
#880000
0!
0-
06
03
07
#890000
1!
1-
16
13
17
1A
0=
18
0:
05
0/
0"
#900000
0!
0-
06
03
07
#910000
1!
1-
16
13
17
1@
0A
1:
#920000
0!
0-
06
03
07
#930000
1!
1-
16
13
17
1A
08
19
0:
#940000
0!
0-
06
03
07
#950000
1!
1-
16
13
17
0@
1?
0A
1:
#960000
0!
0-
06
03
07
#970000
1!
1-
16
13
17
1A
18
0:
#980000
0!
0-
06
03
07
#990000
1!
1-
16
13
17
1@
0A
1:
